{ "photoset": { "id": "72157594446051701", "primary": "337216892", "owner": "11523765@N00", "ownername": "z720",
    "photo": [
      { "id": "16179192607", "secret": "9824a3ae6d", "server": "7408", "farm": 8, "title": "IMG_3822.jpg", "isprimary": 0, "ispublic": 1, "isfriend": 0, "isfamily": 0 },
      { "id": "16363347341", "secret": "c0af4f2569", "server": "7410", "farm": 8, "title": "IMG_3823.jpg", "isprimary": 0, "ispublic": 1, "isfriend": 0, "isfamily": 0 },
      { "id": "15745119183", "secret": "d1cbc21bd2", "server": "7318", "farm": 8, "title": "IMG_3832.jpg", "isprimary": 0, "ispublic": 1, "isfriend": 0, "isfamily": 0 },
      { "id": "16365090695", "secret": "218bbc468b", "server": "7385", "farm": 8, "title": "IMG_3834.jpg", "isprimary": 0, "ispublic": 1, "isfriend": 0, "isfamily": 0 },
      { "id": "15742654874", "secret": "6ea5e6e0c9", "server": "7286", "farm": 8, "title": "IMG_3847.jpg", "isprimary": 0, "ispublic": 1, "isfriend": 0, "isfamily": 0 },
      { "id": "16365100135", "secret": "e767ef837a", "server": "7318", "farm": 8, "title": "IMG_3848.jpg", "isprimary": 0, "ispublic": 1, "isfriend": 0, "isfamily": 0 }
    ], "page": 2, "per_page": 8, "perpage": 8, "pages": 2, "total": 14, "title": "Londres" }, "stat": "ok" }
